[gd_scene load_steps=23 format=2]

[ext_resource path="res://Object/Entity/Object.tscn" type="PackedScene" id=1]
[ext_resource path="res://assets/footiles.png" type="Texture" id=2]
[ext_resource path="res://sfx/Elevatorsoundloop.wav" type="AudioStream" id=3]
[ext_resource path="res://sfx/Elevatorsoundintro.wav" type="AudioStream" id=4]
[ext_resource path="res://sfx/Elevatorsoundoutro.wav" type="AudioStream" id=5]
[ext_resource path="res://sfx/Rat/Rat.ogg" type="AudioStream" id=6]

[sub_resource type="GDScript" id=291]
script/source = "extends \"res://Object/Entity/Object.tscn::16\"

export var free: bool = true
export var wheel: bool = false
export var flip: bool = false

func _ready():
	if free:
		if flip: 
			if wheel:
				$AnimationPlayer.play(\"Waiting\")
				$WheelAnimation.play(\"Stopped\")
				$Wheel.rotation=randi()%360
			else:
				$AnimationPlayer.play(\"StuckFlip\")
				$WheelAnimation.play(\"RollFlip\")
			$SpriteSheet.flip_h = true
		else:
			if wheel: 
				$AnimationPlayer.play(\"Waiting\")
				$WheelAnimation.play(\"Stopped\")
				$Wheel.rotation=randi()%360
		$Area2D.queue_free()
	else:
		if flip:
			$AnimationPlayer.play(\"Idle\")
			$SpriteSheet.flip_h = true
		else:
			$AnimationPlayer.play(\"Idle\")
	
func _process(delta):
	if $AnimationPlayer.current_animation==\"Waiting\" && Global.elevator_working:
		$AnimationPlayer.play(\"StuckFlip\") if flip else $AnimationPlayer.play(\"Stuck\")
		$WheelAnimation.play(\"RollFlip\") if flip else $WheelAnimation.play(\"Roll\")

func _on_AnimationPlayer_animation_finished(anim_name):
	if free:
		if anim_name==\"Stuck\" || anim_name==\"StuckFlip\":
			if flip:
				$AnimationPlayer.play(\"StuckFlip\") if randi()%100>35 else $AnimationPlayer.play(\"OpsFlip\")
			else:
				$AnimationPlayer.play(\"Stuck\") if randi()%100>35 else $AnimationPlayer.play(\"Ops\")
			return
		$AnimationPlayer.play(\"StuckFlip\") if flip else $AnimationPlayer.play(\"Stuck\")
	else:
		queue_free()

func _on_Area2D_body_entered(body):
	if body.is_in_group(\"Player\"):
		if flip:
			$AnimationPlayer.play(\"RunFlip\")
		else:
			$AnimationPlayer.play(\"Run\")
		$Area2D.queue_free()
		Global.progress.rats += 1

"

[sub_resource type="StreamTexture" id=3]
load_path = "res://.import/enrat-sheet.png-241b5134e374455d11de110ca00ebf20.stex"

[sub_resource type="Animation" id=297]
resource_name = "Idle"
loop = true
step = 0.05
tracks/0/type = "value"
tracks/0/path = NodePath(".:rotation_degrees")
tracks/0/interp = 1
tracks/0/loop_wrap = true
tracks/0/imported = false
tracks/0/enabled = true
tracks/0/keys = {
"times": PoolRealArray( 0 ),
"transitions": PoolRealArray( 1 ),
"update": 0,
"values": [ 0.0 ]
}
tracks/1/type = "value"
tracks/1/path = NodePath("SpriteSheet:frame")
tracks/1/interp = 1
tracks/1/loop_wrap = true
tracks/1/imported = false
tracks/1/enabled = true
tracks/1/keys = {
"times": PoolRealArray( 0 ),
"transitions": PoolRealArray( 1 ),
"update": 1,
"values": [ 18 ]
}
tracks/2/type = "value"
tracks/2/path = NodePath("Wheel:visible")
tracks/2/interp = 1
tracks/2/loop_wrap = true
tracks/2/imported = false
tracks/2/enabled = true
tracks/2/keys = {
"times": PoolRealArray( 0 ),
"transitions": PoolRealArray( 1 ),
"update": 1,
"values": [ false ]
}
tracks/3/type = "value"
tracks/3/path = NodePath("SpriteSheet:position")
tracks/3/interp = 1
tracks/3/loop_wrap = true
tracks/3/imported = false
tracks/3/enabled = true
tracks/3/keys = {
"times": PoolRealArray( 0, 0.65, 0.7, 0.75, 0.8, 0.85, 0.9, 0.95 ),
"transitions": PoolRealArray( 1, 1, 1, 1, 1, 1, 1, 1 ),
"update": 2,
"values": [ Vector2( 0, 0 ), Vector2( 0, 3 ), Vector2( 0, 0 ), Vector2( -3, 0 ), Vector2( 0, 1 ), Vector2( 1, 1 ), Vector2( 0, -3 ), Vector2( 0, 1 ) ]
}
tracks/4/type = "value"
tracks/4/path = NodePath("SpriteSheet:modulate")
tracks/4/interp = 1
tracks/4/loop_wrap = true
tracks/4/imported = false
tracks/4/enabled = true
tracks/4/keys = {
"times": PoolRealArray( 0 ),
"transitions": PoolRealArray( 1 ),
"update": 0,
"values": [ Color( 1, 1, 1, 1 ) ]
}

[sub_resource type="Animation" id=290]
resource_name = "Ops"
length = 4.0
tracks/0/type = "value"
tracks/0/path = NodePath("SpriteSheet:frame")
tracks/0/interp = 1
tracks/0/loop_wrap = true
tracks/0/imported = false
tracks/0/enabled = true
tracks/0/keys = {
"times": PoolRealArray( 0, 1.7, 2.8, 2.9, 3, 3.1, 3.2, 3.3, 3.4, 3.5, 3.6, 3.7, 3.8, 4 ),
"transitions": PoolRealArray( 1, 1, 1, 1, 1, 1, 1, 1, 1, 1, 1, 1, 1, 1 ),
"update": 1,
"values": [ 17, 3, 0, 1, 2, 3, 4, 5, 0, 1, 2, 3, 4, 5 ]
}
tracks/1/type = "value"
tracks/1/path = NodePath("SpriteSheet:position")
tracks/1/interp = 1
tracks/1/loop_wrap = true
tracks/1/imported = false
tracks/1/enabled = true
tracks/1/keys = {
"times": PoolRealArray( 0, 0.1 ),
"transitions": PoolRealArray( 1, 1 ),
"update": 0,
"values": [ Vector2( 16, -8 ), Vector2( 8, -8 ) ]
}
tracks/2/type = "value"
tracks/2/path = NodePath(".:rotation_degrees")
tracks/2/interp = 1
tracks/2/loop_wrap = true
tracks/2/imported = false
tracks/2/enabled = true
tracks/2/keys = {
"times": PoolRealArray( 0, 0.2, 0.5, 0.9, 1.3, 1.8, 2.4, 3, 3.3, 3.5, 4 ),
"transitions": PoolRealArray( 1, 1, 1, 1, 1, 1, 1, 1, 1, 1, 1 ),
"update": 0,
"values": [ -15.0, 360.0, 720.0, 1080.0, 1440.0, 1800.0, 2160.0, 2520.0, 2580.0, 2590.0, 2520.0 ]
}
tracks/3/type = "value"
tracks/3/path = NodePath("Wheel:visible")
tracks/3/interp = 1
tracks/3/loop_wrap = true
tracks/3/imported = false
tracks/3/enabled = true
tracks/3/keys = {
"times": PoolRealArray( 0 ),
"transitions": PoolRealArray( 1 ),
"update": 1,
"values": [ true ]
}
tracks/4/type = "value"
tracks/4/path = NodePath("SpriteSheet:modulate")
tracks/4/interp = 1
tracks/4/loop_wrap = true
tracks/4/imported = false
tracks/4/enabled = true
tracks/4/keys = {
"times": PoolRealArray( 0 ),
"transitions": PoolRealArray( 1 ),
"update": 0,
"values": [ Color( 1, 1, 1, 1 ) ]
}
tracks/5/type = "audio"
tracks/5/path = NodePath("AudioStreamPlayer2DElevator")
tracks/5/interp = 1
tracks/5/loop_wrap = true
tracks/5/imported = false
tracks/5/enabled = true
tracks/5/keys = {
"clips": [ {
"end_offset": 0.0,
"start_offset": 0.0,
"stream": ExtResource( 3 )
}, {
"end_offset": 0.0,
"start_offset": 0.0,
"stream": ExtResource( 3 )
}, {
"end_offset": 0.0,
"start_offset": 0.0,
"stream": ExtResource( 3 )
}, {
"end_offset": 0.0,
"start_offset": 0.0,
"stream": ExtResource( 5 )
}, {
"end_offset": 0.0,
"start_offset": 0.0,
"stream": ExtResource( 4 )
} ],
"times": PoolRealArray( 0, 0.6, 1.2, 1.4, 3.22175 )
}

[sub_resource type="Animation" id=293]
resource_name = "OpsFlip"
length = 4.0
tracks/0/type = "value"
tracks/0/path = NodePath("SpriteSheet:frame")
tracks/0/interp = 1
tracks/0/loop_wrap = true
tracks/0/imported = false
tracks/0/enabled = true
tracks/0/keys = {
"times": PoolRealArray( 0, 1.7, 2.8, 2.9, 3, 3.1, 3.2, 3.3, 3.4, 3.5, 3.6, 3.7, 3.8, 4 ),
"transitions": PoolRealArray( 1, 1, 1, 1, 1, 1, 1, 1, 1, 1, 1, 1, 1, 1 ),
"update": 1,
"values": [ 17, 3, 0, 1, 2, 3, 4, 5, 0, 1, 2, 3, 4, 5 ]
}
tracks/1/type = "value"
tracks/1/path = NodePath("SpriteSheet:position")
tracks/1/interp = 1
tracks/1/loop_wrap = true
tracks/1/imported = false
tracks/1/enabled = true
tracks/1/keys = {
"times": PoolRealArray( 0, 0.1 ),
"transitions": PoolRealArray( 1, 1 ),
"update": 0,
"values": [ Vector2( -16, -8 ), Vector2( -8, -8 ) ]
}
tracks/2/type = "value"
tracks/2/path = NodePath(".:rotation_degrees")
tracks/2/interp = 1
tracks/2/loop_wrap = true
tracks/2/imported = false
tracks/2/enabled = true
tracks/2/keys = {
"times": PoolRealArray( 0, 0.2, 0.5, 0.9, 1.3, 1.8, 2.4, 3, 3.3, 3.5, 4 ),
"transitions": PoolRealArray( 1, 1, 1, 1, 1, 1, 1, 1, 1, 1, 1 ),
"update": 0,
"values": [ 15.0, -360.0, -720.0, -1080.0, -1440.0, -1800.0, -2160.0, -2520.0, -2580.0, -2590.0, -2520.0 ]
}
tracks/3/type = "value"
tracks/3/path = NodePath("Wheel:visible")
tracks/3/interp = 1
tracks/3/loop_wrap = true
tracks/3/imported = false
tracks/3/enabled = true
tracks/3/keys = {
"times": PoolRealArray( 0 ),
"transitions": PoolRealArray( 1 ),
"update": 1,
"values": [ true ]
}
tracks/4/type = "value"
tracks/4/path = NodePath("SpriteSheet:modulate")
tracks/4/interp = 1
tracks/4/loop_wrap = true
tracks/4/imported = false
tracks/4/enabled = true
tracks/4/keys = {
"times": PoolRealArray( 0 ),
"transitions": PoolRealArray( 1 ),
"update": 0,
"values": [ Color( 1, 1, 1, 1 ) ]
}
tracks/5/type = "audio"
tracks/5/path = NodePath("AudioStreamPlayer2DElevator")
tracks/5/interp = 1
tracks/5/loop_wrap = true
tracks/5/imported = false
tracks/5/enabled = true
tracks/5/keys = {
"clips": [ {
"end_offset": 0.0,
"start_offset": 0.0,
"stream": ExtResource( 3 )
}, {
"end_offset": 0.0,
"start_offset": 0.0,
"stream": ExtResource( 3 )
}, {
"end_offset": 0.0,
"start_offset": 0.0,
"stream": ExtResource( 3 )
}, {
"end_offset": 0.0,
"start_offset": 0.0,
"stream": ExtResource( 5 )
}, {
"end_offset": 0.0,
"start_offset": 0.0,
"stream": ExtResource( 4 )
} ],
"times": PoolRealArray( 0, 0.6, 1.2, 1.4, 3.22175 )
}

[sub_resource type="Animation" id=2]
length = 0.001
tracks/0/type = "value"
tracks/0/path = NodePath("SpriteSheet:frame")
tracks/0/interp = 1
tracks/0/loop_wrap = true
tracks/0/imported = false
tracks/0/enabled = true
tracks/0/keys = {
"times": PoolRealArray( 0 ),
"transitions": PoolRealArray( 1 ),
"update": 0,
"values": [ 0 ]
}
tracks/1/type = "value"
tracks/1/path = NodePath("SpriteSheet:position")
tracks/1/interp = 1
tracks/1/loop_wrap = true
tracks/1/imported = false
tracks/1/enabled = true
tracks/1/keys = {
"times": PoolRealArray( 0 ),
"transitions": PoolRealArray( 1 ),
"update": 0,
"values": [ Vector2( 16, 0 ) ]
}
tracks/2/type = "value"
tracks/2/path = NodePath(".:rotation_degrees")
tracks/2/interp = 1
tracks/2/loop_wrap = true
tracks/2/imported = false
tracks/2/enabled = true
tracks/2/keys = {
"times": PoolRealArray( 0 ),
"transitions": PoolRealArray( 1 ),
"update": 0,
"values": [ 15.0 ]
}
tracks/3/type = "value"
tracks/3/path = NodePath("Wheel:visible")
tracks/3/interp = 1
tracks/3/loop_wrap = true
tracks/3/imported = false
tracks/3/enabled = true
tracks/3/keys = {
"times": PoolRealArray( 0 ),
"transitions": PoolRealArray( 1 ),
"update": 0,
"values": [ true ]
}
tracks/4/type = "value"
tracks/4/path = NodePath("SpriteSheet:modulate")
tracks/4/interp = 1
tracks/4/loop_wrap = true
tracks/4/imported = false
tracks/4/enabled = true
tracks/4/keys = {
"times": PoolRealArray( 0 ),
"transitions": PoolRealArray( 1 ),
"update": 0,
"values": [ Color( 1, 1, 1, 1 ) ]
}
tracks/5/type = "value"
tracks/5/path = NodePath("Sprite:visible")
tracks/5/interp = 1
tracks/5/loop_wrap = true
tracks/5/imported = false
tracks/5/enabled = true
tracks/5/keys = {
"times": PoolRealArray( 0 ),
"transitions": PoolRealArray( 1 ),
"update": 0,
"values": [ false ]
}
tracks/6/type = "value"
tracks/6/path = NodePath("Sprite:modulate")
tracks/6/interp = 1
tracks/6/loop_wrap = true
tracks/6/imported = false
tracks/6/enabled = true
tracks/6/keys = {
"times": PoolRealArray( 0 ),
"transitions": PoolRealArray( 1 ),
"update": 0,
"values": [ Color( 1, 1, 1, 0 ) ]
}
tracks/7/type = "value"
tracks/7/path = NodePath("Sprite:position")
tracks/7/interp = 1
tracks/7/loop_wrap = true
tracks/7/imported = false
tracks/7/enabled = true
tracks/7/keys = {
"times": PoolRealArray( 0 ),
"transitions": PoolRealArray( 1 ),
"update": 0,
"values": [ Vector2( 0, -24 ) ]
}
tracks/8/type = "bezier"
tracks/8/path = NodePath("Sprite:position:x")
tracks/8/interp = 1
tracks/8/loop_wrap = true
tracks/8/imported = false
tracks/8/enabled = true
tracks/8/keys = {
"points": PoolRealArray( 32, -0.25, 0, 0.25, 0 ),
"times": PoolRealArray( 0 )
}
tracks/9/type = "bezier"
tracks/9/path = NodePath("Sprite:position:y")
tracks/9/interp = 1
tracks/9/loop_wrap = true
tracks/9/imported = false
tracks/9/enabled = true
tracks/9/keys = {
"points": PoolRealArray( -48, -0.25, 0, 0.25, 0 ),
"times": PoolRealArray( 0 )
}

[sub_resource type="Animation" id=298]
resource_name = "Run"
length = 1.9
step = 0.05
tracks/0/type = "value"
tracks/0/path = NodePath(".:rotation_degrees")
tracks/0/interp = 1
tracks/0/loop_wrap = true
tracks/0/imported = false
tracks/0/enabled = true
tracks/0/keys = {
"times": PoolRealArray( 0 ),
"transitions": PoolRealArray( 1 ),
"update": 0,
"values": [ 0.0 ]
}
tracks/1/type = "value"
tracks/1/path = NodePath("SpriteSheet:frame")
tracks/1/interp = 1
tracks/1/loop_wrap = true
tracks/1/imported = false
tracks/1/enabled = true
tracks/1/keys = {
"times": PoolRealArray( 0, 0.1, 0.2, 0.3, 0.4, 0.5, 0.6, 0.7, 0.8, 0.9, 1, 1.1, 1.2, 1.3, 1.4, 1.5, 1.6, 1.7 ),
"transitions": PoolRealArray( 1, 1, 1, 1, 1, 1, 1, 1, 1, 1, 1, 1, 1, 1, 1, 1, 1, 1 ),
"update": 1,
"values": [ 0, 1, 2, 3, 4, 5, 6, 7, 8, 9, 10, 11, 12, 13, 14, 15, 16, 17 ]
}
tracks/2/type = "value"
tracks/2/path = NodePath("Wheel:visible")
tracks/2/interp = 1
tracks/2/loop_wrap = true
tracks/2/imported = false
tracks/2/enabled = true
tracks/2/keys = {
"times": PoolRealArray( 0 ),
"transitions": PoolRealArray( 1 ),
"update": 1,
"values": [ false ]
}
tracks/3/type = "value"
tracks/3/path = NodePath("SpriteSheet:position")
tracks/3/interp = 1
tracks/3/loop_wrap = true
tracks/3/imported = false
tracks/3/enabled = true
tracks/3/keys = {
"times": PoolRealArray( 0, 1.2, 1.55, 1.7, 1.8, 1.9 ),
"transitions": PoolRealArray( 1, 1, 1, 1, 1, 1 ),
"update": 0,
"values": [ Vector2( 0, 0 ), Vector2( -8, 0 ), Vector2( 204.334, 0 ), Vector2( 295.333, -64 ), Vector2( 356, -72 ), Vector2( 401.5, -64 ) ]
}
tracks/4/type = "value"
tracks/4/path = NodePath("SpriteSheet:modulate")
tracks/4/interp = 1
tracks/4/loop_wrap = true
tracks/4/imported = false
tracks/4/enabled = true
tracks/4/keys = {
"times": PoolRealArray( 0, 1.55, 1.9 ),
"transitions": PoolRealArray( 1, 1, 1 ),
"update": 0,
"values": [ Color( 1, 1, 1, 1 ), Color( 1, 1, 1, 1 ), Color( 1, 1, 1, 0 ) ]
}
tracks/5/type = "value"
tracks/5/path = NodePath("Sprite:visible")
tracks/5/interp = 1
tracks/5/loop_wrap = true
tracks/5/imported = false
tracks/5/enabled = true
tracks/5/keys = {
"times": PoolRealArray( 0 ),
"transitions": PoolRealArray( 1 ),
"update": 1,
"values": [ true ]
}
tracks/6/type = "value"
tracks/6/path = NodePath("Sprite:modulate")
tracks/6/interp = 1
tracks/6/loop_wrap = true
tracks/6/imported = false
tracks/6/enabled = true
tracks/6/keys = {
"times": PoolRealArray( 0, 0.4, 0.8 ),
"transitions": PoolRealArray( 1, 1, 1 ),
"update": 0,
"values": [ Color( 1, 1, 1, 0 ), Color( 1, 1, 1, 1 ), Color( 1, 1, 1, 0 ) ]
}
tracks/7/type = "value"
tracks/7/path = NodePath("Sprite:position")
tracks/7/interp = 1
tracks/7/loop_wrap = true
tracks/7/imported = false
tracks/7/enabled = true
tracks/7/keys = {
"times": PoolRealArray( 0, 0.2, 0.4, 0.6, 0.8 ),
"transitions": PoolRealArray( 1, 1, 1, 1, 1 ),
"update": 0,
"values": [ Vector2( 0, -8 ), Vector2( 40, -32 ), Vector2( 64, -72 ), Vector2( 32, -104 ), Vector2( 48, -112 ) ]
}
tracks/8/type = "audio"
tracks/8/path = NodePath("AudioStreamPlayer2D")
tracks/8/interp = 1
tracks/8/loop_wrap = true
tracks/8/imported = false
tracks/8/enabled = true
tracks/8/keys = {
"clips": [ {
"end_offset": 0.0,
"start_offset": 0.0,
"stream": ExtResource( 6 )
} ],
"times": PoolRealArray( 0 )
}

[sub_resource type="Animation" id=300]
resource_name = "RunFlip"
length = 1.9
step = 0.05
tracks/0/type = "value"
tracks/0/path = NodePath(".:rotation_degrees")
tracks/0/interp = 1
tracks/0/loop_wrap = true
tracks/0/imported = false
tracks/0/enabled = true
tracks/0/keys = {
"times": PoolRealArray( 0 ),
"transitions": PoolRealArray( 1 ),
"update": 0,
"values": [ 0.0 ]
}
tracks/1/type = "value"
tracks/1/path = NodePath("SpriteSheet:frame")
tracks/1/interp = 1
tracks/1/loop_wrap = true
tracks/1/imported = false
tracks/1/enabled = true
tracks/1/keys = {
"times": PoolRealArray( 0, 0.1, 0.2, 0.3, 0.4, 0.5, 0.6, 0.7, 0.8, 0.9, 1, 1.1, 1.2, 1.3, 1.4, 1.5, 1.6, 1.7 ),
"transitions": PoolRealArray( 1, 1, 1, 1, 1, 1, 1, 1, 1, 1, 1, 1, 1, 1, 1, 1, 1, 1 ),
"update": 1,
"values": [ 0, 1, 2, 3, 4, 5, 6, 7, 8, 9, 10, 11, 12, 13, 14, 15, 16, 17 ]
}
tracks/2/type = "value"
tracks/2/path = NodePath("Wheel:visible")
tracks/2/interp = 1
tracks/2/loop_wrap = true
tracks/2/imported = false
tracks/2/enabled = true
tracks/2/keys = {
"times": PoolRealArray( 0 ),
"transitions": PoolRealArray( 1 ),
"update": 1,
"values": [ false ]
}
tracks/3/type = "value"
tracks/3/path = NodePath("SpriteSheet:position")
tracks/3/interp = 1
tracks/3/loop_wrap = true
tracks/3/imported = false
tracks/3/enabled = true
tracks/3/keys = {
"times": PoolRealArray( 0, 1.2, 1.55, 1.7, 1.8, 1.9 ),
"transitions": PoolRealArray( 1, 1, 1, 1, 1, 1 ),
"update": 0,
"values": [ Vector2( 0, 0 ), Vector2( 8, 0 ), Vector2( -204.334, 0 ), Vector2( -295.333, -64 ), Vector2( -356, -72 ), Vector2( -401.5, -64 ) ]
}
tracks/4/type = "value"
tracks/4/path = NodePath("SpriteSheet:modulate")
tracks/4/interp = 1
tracks/4/loop_wrap = true
tracks/4/imported = false
tracks/4/enabled = true
tracks/4/keys = {
"times": PoolRealArray( 0, 1.55, 1.9 ),
"transitions": PoolRealArray( 1, 1, 1 ),
"update": 0,
"values": [ Color( 1, 1, 1, 1 ), Color( 1, 1, 1, 1 ), Color( 1, 1, 1, 0 ) ]
}
tracks/5/type = "value"
tracks/5/path = NodePath("Sprite:visible")
tracks/5/interp = 1
tracks/5/loop_wrap = true
tracks/5/imported = false
tracks/5/enabled = true
tracks/5/keys = {
"times": PoolRealArray( 0 ),
"transitions": PoolRealArray( 1 ),
"update": 1,
"values": [ true ]
}
tracks/6/type = "value"
tracks/6/path = NodePath("Sprite:modulate")
tracks/6/interp = 1
tracks/6/loop_wrap = true
tracks/6/imported = false
tracks/6/enabled = true
tracks/6/keys = {
"times": PoolRealArray( 0, 0.4, 0.8 ),
"transitions": PoolRealArray( 1, 1, 1 ),
"update": 0,
"values": [ Color( 1, 1, 1, 0 ), Color( 1, 1, 1, 1 ), Color( 1, 1, 1, 0 ) ]
}
tracks/7/type = "value"
tracks/7/path = NodePath("Sprite:position")
tracks/7/interp = 1
tracks/7/loop_wrap = true
tracks/7/imported = false
tracks/7/enabled = true
tracks/7/keys = {
"times": PoolRealArray( 0, 0.2, 0.4, 0.6, 0.8 ),
"transitions": PoolRealArray( 1, 1, 1, 1, 1 ),
"update": 0,
"values": [ Vector2( 0, -8 ), Vector2( 40, -32 ), Vector2( 64, -72 ), Vector2( 32, -104 ), Vector2( 48, -112 ) ]
}
tracks/8/type = "audio"
tracks/8/path = NodePath("AudioStreamPlayer2D")
tracks/8/interp = 1
tracks/8/loop_wrap = true
tracks/8/imported = false
tracks/8/enabled = true
tracks/8/keys = {
"clips": [ {
"end_offset": 0.0,
"start_offset": 0.0,
"stream": ExtResource( 6 )
} ],
"times": PoolRealArray( 0 )
}

[sub_resource type="Animation" id=1]
resource_name = "Stuck"
length = 4.8
tracks/0/type = "value"
tracks/0/path = NodePath("SpriteSheet:frame")
tracks/0/interp = 1
tracks/0/loop_wrap = true
tracks/0/imported = false
tracks/0/enabled = true
tracks/0/keys = {
"times": PoolRealArray( 0, 0.1, 0.2, 0.3, 0.4, 0.5, 0.6, 0.7, 0.8, 0.9, 1, 1.1, 1.2, 1.3, 1.4, 1.5, 1.6, 1.7, 1.8, 1.9, 2, 2.1, 2.2, 2.3, 2.4, 2.5, 2.6, 2.7, 2.8, 2.9, 3, 3.1, 3.2, 3.3, 3.4, 3.5, 3.6, 3.7, 3.8, 3.9, 4, 4.1, 4.2, 4.3, 4.4, 4.5, 4.6, 4.7 ),
"transitions": PoolRealArray( 1, 1, 1, 1, 1, 1, 1, 1, 1, 1, 1, 1, 1, 1, 1, 1, 1, 1, 1, 1, 1, 1, 1, 1, 1, 1, 1, 1, 1, 1, 1, 1, 1, 1, 1, 1, 1, 1, 1, 1, 1, 1, 1, 1, 1, 1, 1, 1 ),
"update": 1,
"values": [ 0, 1, 2, 3, 4, 5, 6, 7, 8, 9, 10, 11, 0, 1, 2, 3, 4, 5, 6, 7, 8, 9, 10, 11, 12, 13, 14, 15, 16, 17, 12, 13, 14, 15, 16, 17, 12, 13, 14, 15, 16, 17, 12, 13, 14, 15, 16, 17 ]
}
tracks/1/type = "value"
tracks/1/path = NodePath("SpriteSheet:position")
tracks/1/interp = 1
tracks/1/loop_wrap = true
tracks/1/imported = false
tracks/1/enabled = true
tracks/1/keys = {
"times": PoolRealArray( 0, 0.5, 2.4, 3 ),
"transitions": PoolRealArray( 1, 1, 1, 1 ),
"update": 0,
"values": [ Vector2( 8, -8 ), Vector2( 0, -8 ), Vector2( -16, -8 ), Vector2( 16, -8 ) ]
}
tracks/2/type = "value"
tracks/2/path = NodePath(".:rotation_degrees")
tracks/2/interp = 1
tracks/2/loop_wrap = true
tracks/2/imported = false
tracks/2/enabled = true
tracks/2/keys = {
"times": PoolRealArray( 0, 2.4, 3, 4.8 ),
"transitions": PoolRealArray( 1, 1, 1, 1 ),
"update": 0,
"values": [ 0.0, 15.0, -15.0, 0.0 ]
}
tracks/3/type = "value"
tracks/3/path = NodePath("SpriteSheet:modulate")
tracks/3/interp = 1
tracks/3/loop_wrap = true
tracks/3/imported = false
tracks/3/enabled = true
tracks/3/keys = {
"times": PoolRealArray( 0 ),
"transitions": PoolRealArray( 1 ),
"update": 0,
"values": [ Color( 1, 1, 1, 1 ) ]
}
tracks/4/type = "audio"
tracks/4/path = NodePath("AudioStreamPlayer2DElevator")
tracks/4/interp = 1
tracks/4/loop_wrap = true
tracks/4/imported = false
tracks/4/enabled = true
tracks/4/keys = {
"clips": [ {
"end_offset": 0.0,
"start_offset": 0.0,
"stream": ExtResource( 3 )
}, {
"end_offset": 0.0,
"start_offset": 0.0,
"stream": ExtResource( 3 )
}, {
"end_offset": 0.0,
"start_offset": 0.0,
"stream": ExtResource( 3 )
}, {
"end_offset": 0.0,
"start_offset": 0.0,
"stream": ExtResource( 3 )
}, {
"end_offset": 0.0,
"start_offset": 0.0,
"stream": ExtResource( 3 )
}, {
"end_offset": 0.0,
"start_offset": 0.0,
"stream": ExtResource( 3 )
}, {
"end_offset": 0.0,
"start_offset": 0.0,
"stream": ExtResource( 3 )
}, {
"end_offset": 0.0,
"start_offset": 0.0,
"stream": ExtResource( 3 )
} ],
"times": PoolRealArray( 0, 0.6, 1.2, 1.8, 2.4, 3, 3.6, 4.2 )
}

[sub_resource type="Animation" id=292]
resource_name = "StuckFlip"
length = 4.8
tracks/0/type = "value"
tracks/0/path = NodePath("SpriteSheet:frame")
tracks/0/interp = 1
tracks/0/loop_wrap = true
tracks/0/imported = false
tracks/0/enabled = true
tracks/0/keys = {
"times": PoolRealArray( 0, 0.1, 0.2, 0.3, 0.4, 0.5, 0.6, 0.7, 0.8, 0.9, 1, 1.1, 1.2, 1.3, 1.4, 1.5, 1.6, 1.7, 1.8, 1.9, 2, 2.2, 2.3, 2.4, 2.5, 2.6, 2.7, 2.8, 2.9, 3, 3.1, 3.2, 3.3, 3.4, 3.5, 3.6, 3.7, 3.8, 3.9, 4, 4.1, 4.2, 4.3, 4.4, 4.5, 4.6, 4.7 ),
"transitions": PoolRealArray( 1, 1, 1, 1, 1, 1, 1, 1, 1, 1, 1, 1, 1, 1, 1, 1, 1, 1, 1, 1, 1, 1, 1, 1, 1, 1, 1, 1, 1, 1, 1, 1, 1, 1, 1, 1, 1, 1, 1, 1, 1, 1, 1, 1, 1, 1, 1 ),
"update": 1,
"values": [ 0, 1, 2, 3, 4, 5, 6, 7, 8, 9, 10, 11, 0, 1, 2, 3, 4, 5, 6, 7, 8, 10, 11, 12, 13, 14, 15, 16, 17, 12, 13, 14, 15, 16, 17, 12, 13, 14, 15, 16, 17, 12, 13, 14, 15, 16, 17 ]
}
tracks/1/type = "value"
tracks/1/path = NodePath("SpriteSheet:position")
tracks/1/interp = 1
tracks/1/loop_wrap = true
tracks/1/imported = false
tracks/1/enabled = true
tracks/1/keys = {
"times": PoolRealArray( 0, 0.5, 2.4, 3 ),
"transitions": PoolRealArray( 1, 1, 1, 1 ),
"update": 0,
"values": [ Vector2( -8, -8 ), Vector2( 0, -8 ), Vector2( 16, -8 ), Vector2( -16, -8 ) ]
}
tracks/2/type = "value"
tracks/2/path = NodePath(".:rotation_degrees")
tracks/2/interp = 1
tracks/2/loop_wrap = true
tracks/2/imported = false
tracks/2/enabled = true
tracks/2/keys = {
"times": PoolRealArray( 0, 2.4, 3, 4.8 ),
"transitions": PoolRealArray( 1, 1, 1, 1 ),
"update": 0,
"values": [ 0.0, -15.0, 15.0, 0.0 ]
}
tracks/3/type = "value"
tracks/3/path = NodePath("Wheel:visible")
tracks/3/interp = 1
tracks/3/loop_wrap = true
tracks/3/imported = false
tracks/3/enabled = true
tracks/3/keys = {
"times": PoolRealArray( 0 ),
"transitions": PoolRealArray( 1 ),
"update": 1,
"values": [ true ]
}
tracks/4/type = "value"
tracks/4/path = NodePath("SpriteSheet:modulate")
tracks/4/interp = 1
tracks/4/loop_wrap = true
tracks/4/imported = false
tracks/4/enabled = true
tracks/4/keys = {
"times": PoolRealArray( 0 ),
"transitions": PoolRealArray( 1 ),
"update": 0,
"values": [ Color( 1, 1, 1, 1 ) ]
}
tracks/5/type = "audio"
tracks/5/path = NodePath("AudioStreamPlayer2DElevator")
tracks/5/interp = 1
tracks/5/loop_wrap = true
tracks/5/imported = false
tracks/5/enabled = true
tracks/5/keys = {
"clips": [ {
"end_offset": 0.0,
"start_offset": 0.0,
"stream": ExtResource( 3 )
}, {
"end_offset": 0.0,
"start_offset": 0.0,
"stream": ExtResource( 3 )
}, {
"end_offset": 0.0,
"start_offset": 0.0,
"stream": ExtResource( 3 )
}, {
"end_offset": 0.0,
"start_offset": 0.0,
"stream": ExtResource( 3 )
}, {
"end_offset": 0.0,
"start_offset": 0.0,
"stream": ExtResource( 3 )
}, {
"end_offset": 0.0,
"start_offset": 0.0,
"stream": ExtResource( 3 )
}, {
"end_offset": 0.0,
"start_offset": 0.0,
"stream": ExtResource( 3 )
}, {
"end_offset": 0.0,
"start_offset": 0.0,
"stream": ExtResource( 3 )
} ],
"times": PoolRealArray( 0, 0.6, 1.2, 1.8, 2.4, 3, 3.6, 4.2 )
}

[sub_resource type="Animation" id=301]
resource_name = "Waiting"
loop = true
step = 0.05
tracks/0/type = "value"
tracks/0/path = NodePath(".:rotation_degrees")
tracks/0/interp = 1
tracks/0/loop_wrap = true
tracks/0/imported = false
tracks/0/enabled = true
tracks/0/keys = {
"times": PoolRealArray( 0 ),
"transitions": PoolRealArray( 1 ),
"update": 0,
"values": [ 0.0 ]
}
tracks/1/type = "value"
tracks/1/path = NodePath("SpriteSheet:frame")
tracks/1/interp = 1
tracks/1/loop_wrap = true
tracks/1/imported = false
tracks/1/enabled = true
tracks/1/keys = {
"times": PoolRealArray( 0 ),
"transitions": PoolRealArray( 1 ),
"update": 1,
"values": [ 18 ]
}
tracks/2/type = "value"
tracks/2/path = NodePath("Wheel:visible")
tracks/2/interp = 1
tracks/2/loop_wrap = true
tracks/2/imported = false
tracks/2/enabled = true
tracks/2/keys = {
"times": PoolRealArray( 0 ),
"transitions": PoolRealArray( 1 ),
"update": 1,
"values": [ true ]
}
tracks/3/type = "value"
tracks/3/path = NodePath("SpriteSheet:position")
tracks/3/interp = 1
tracks/3/loop_wrap = true
tracks/3/imported = false
tracks/3/enabled = true
tracks/3/keys = {
"times": PoolRealArray( 0 ),
"transitions": PoolRealArray( 1 ),
"update": 2,
"values": [ Vector2( 0, -8 ) ]
}
tracks/4/type = "value"
tracks/4/path = NodePath("SpriteSheet:modulate")
tracks/4/interp = 1
tracks/4/loop_wrap = true
tracks/4/imported = false
tracks/4/enabled = true
tracks/4/keys = {
"times": PoolRealArray( 0 ),
"transitions": PoolRealArray( 1 ),
"update": 0,
"values": [ Color( 1, 1, 1, 1 ) ]
}

[sub_resource type="Animation" id=294]
length = 0.001
tracks/0/type = "value"
tracks/0/path = NodePath("Wheel:rotation_degrees")
tracks/0/interp = 1
tracks/0/loop_wrap = true
tracks/0/imported = false
tracks/0/enabled = true
tracks/0/keys = {
"times": PoolRealArray( 0 ),
"transitions": PoolRealArray( 1 ),
"update": 0,
"values": [ 0.0 ]
}
tracks/1/type = "value"
tracks/1/path = NodePath("AudioStreamPlayer2DElevator:playing")
tracks/1/interp = 1
tracks/1/loop_wrap = true
tracks/1/imported = false
tracks/1/enabled = false
tracks/1/keys = {
"times": PoolRealArray( 0 ),
"transitions": PoolRealArray( 1 ),
"update": 1,
"values": [ false ]
}

[sub_resource type="Animation" id=295]
resource_name = "Roll"
length = 0.5
loop = true
tracks/0/type = "value"
tracks/0/path = NodePath("Wheel:rotation_degrees")
tracks/0/interp = 1
tracks/0/loop_wrap = true
tracks/0/imported = false
tracks/0/enabled = true
tracks/0/keys = {
"times": PoolRealArray( 0, 0.5 ),
"transitions": PoolRealArray( 1, 1 ),
"update": 0,
"values": [ 0.0, 360.0 ]
}
tracks/1/type = "value"
tracks/1/path = NodePath("AudioStreamPlayer2DElevator:playing")
tracks/1/interp = 1
tracks/1/loop_wrap = true
tracks/1/imported = false
tracks/1/enabled = false
tracks/1/keys = {
"times": PoolRealArray( 0 ),
"transitions": PoolRealArray( 1 ),
"update": 1,
"values": [ true ]
}

[sub_resource type="Animation" id=296]
resource_name = "RollFlip"
length = 0.5
loop = true
tracks/0/type = "value"
tracks/0/path = NodePath("Wheel:rotation_degrees")
tracks/0/interp = 1
tracks/0/loop_wrap = true
tracks/0/imported = false
tracks/0/enabled = true
tracks/0/keys = {
"times": PoolRealArray( 0, 0.5 ),
"transitions": PoolRealArray( 1, 1 ),
"update": 0,
"values": [ 0.0, -360.0 ]
}
tracks/1/type = "value"
tracks/1/path = NodePath("AudioStreamPlayer2DElevator:playing")
tracks/1/interp = 1
tracks/1/loop_wrap = true
tracks/1/imported = false
tracks/1/enabled = false
tracks/1/keys = {
"times": PoolRealArray( 0 ),
"transitions": PoolRealArray( 1 ),
"update": 1,
"values": [ true ]
}

[sub_resource type="Animation" id=302]
resource_name = "Stopped"
length = 5.0
loop = true
tracks/0/type = "value"
tracks/0/path = NodePath("Wheel:rotation_degrees")
tracks/0/interp = 1
tracks/0/loop_wrap = true
tracks/0/imported = false
tracks/0/enabled = false
tracks/0/keys = {
"times": PoolRealArray( 0, 5 ),
"transitions": PoolRealArray( 1, 1 ),
"update": 0,
"values": [ 0.0, 360.0 ]
}

[sub_resource type="RectangleShape2D" id=299]
extents = Vector2( 112, 112 )

[node name="Rat" instance=ExtResource( 1 )]
pause_mode = 2
rotation = 0.261799
script = SubResource( 291 )
flip = true

[node name="SpriteSheet" parent="." index="0"]
position = Vector2( 16, 0 )
rotation = -6.28319
texture = SubResource( 3 )
vframes = 4

[node name="AnimationPlayer" parent="." index="1"]
autoplay = "Stuck"
anims/Idle = SubResource( 297 )
anims/Ops = SubResource( 290 )
anims/OpsFlip = SubResource( 293 )
anims/RESET = SubResource( 2 )
anims/Run = SubResource( 298 )
anims/RunFlip = SubResource( 300 )
anims/Stuck = SubResource( 1 )
anims/StuckFlip = SubResource( 292 )
anims/Waiting = SubResource( 301 )

[node name="Wheel" type="Sprite" parent="." index="5"]
scale = Vector2( 8, 8 )
texture = ExtResource( 2 )
region_enabled = true
region_rect = Rect2( 56, 64, 16, 16 )
__meta__ = {
"_edit_lock_": true
}

[node name="WheelAnimation" type="AnimationPlayer" parent="." index="6"]
autoplay = "Stopped"
playback_speed = 0.75
anims/RESET = SubResource( 294 )
anims/Roll = SubResource( 295 )
anims/RollFlip = SubResource( 296 )
anims/Stopped = SubResource( 302 )

[node name="Sprite" type="Sprite" parent="." index="7"]
visible = false
modulate = Color( 1, 1, 1, 0 )
position = Vector2( 32, -48 )
scale = Vector2( 4, 4 )
texture = ExtResource( 2 )
region_enabled = true
region_rect = Rect2( 96, 32, 8, 8 )

[node name="Area2D" type="Area2D" parent="." index="8"]

[node name="CollisionShape2D" type="CollisionShape2D" parent="Area2D" index="0"]
shape = SubResource( 299 )
__meta__ = {
"_edit_lock_": true
}

[node name="AudioStreamPlayer2DElevator" type="AudioStreamPlayer2D" parent="." index="9"]
stream = ExtResource( 4 )
max_distance = 1000.0
attenuation = 2.63902
bus = "Sfx"

[node name="AudioStreamPlayer2D" type="AudioStreamPlayer2D" parent="." index="10"]
stream = ExtResource( 6 )
max_distance = 1000.0
bus = "SfxLouder"

[connection signal="animation_finished" from="AnimationPlayer" to="." method="_on_AnimationPlayer_animation_finished"]
[connection signal="body_entered" from="Area2D" to="." method="_on_Area2D_body_entered"]
