[gd_scene load_steps=16 format=2]

[ext_resource path="res://assets/nut.png" type="Texture" id=1]
[ext_resource path="res://sfx/Explosion.wav" type="AudioStream" id=2]

[sub_resource type="PhysicsMaterial" id=8]
friction = 0.0
bounce = 1.0

[sub_resource type="GDScript" id=4]
script/source = "extends RigidBody2D

export var velocity: int
export var dir: int
export var vertical: int = 1

func _ready():
	velocity = 2000
	applied_force = Vector2(velocity*dir,velocity*vertical)

func _physics_process(delta):
	if linear_velocity != Vector2.ZERO:
		applied_force = Vector2.ZERO

func _on_Timer_timeout():
	$AnimationPlayer.play(\"Explosion\")

func _on_AnimationPlayer_animation_finished(anim_name):
	if anim_name==\"Explosion\":
		queue_free()

func _on_Area2D_body_entered(body):
	if body.is_in_group(\"Player\"):
		linear_velocity = Vector2.ZERO
		$AnimationPlayer.play(\"Explosion\")

func _on_Area2D_area_entered(area):
	if area.is_in_group(\"Player\"):
		linear_velocity = Vector2.ZERO
		$AnimationPlayer.play(\"Explosion\")

func _on_ExplosionArea_area_entered(area):
	var body = area.get_parent()
	if body.is_in_group(\"Player\"):
		if body.vunerable: 
			Global.player_life -= 1
			body.knockback = 300*sign(body.position.x - position.x) if sign(body.position.x - position.x) else 300
			body.vunerable = false
"

[sub_resource type="CircleShape2D" id=12]
radius = 32.0

[sub_resource type="CircleShape2D" id=5]
radius = 24.0

[sub_resource type="Animation" id=13]
resource_name = "Explosion"
tracks/0/type = "value"
tracks/0/path = NodePath("Nut:visible")
tracks/0/interp = 1
tracks/0/loop_wrap = true
tracks/0/imported = false
tracks/0/enabled = true
tracks/0/keys = {
"times": PoolRealArray( 0, 0.5 ),
"transitions": PoolRealArray( 1, 1 ),
"update": 1,
"values": [ true, false ]
}
tracks/1/type = "value"
tracks/1/path = NodePath("Nut:scale")
tracks/1/interp = 1
tracks/1/loop_wrap = true
tracks/1/imported = false
tracks/1/enabled = true
tracks/1/keys = {
"times": PoolRealArray( 0, 0.2, 0.4 ),
"transitions": PoolRealArray( 1, 1, 1 ),
"update": 0,
"values": [ Vector2( 7.5, 5 ), Vector2( 8.5, 9 ), Vector2( 5, 8 ) ]
}
tracks/2/type = "value"
tracks/2/path = NodePath("Particles2D:emitting")
tracks/2/interp = 1
tracks/2/loop_wrap = true
tracks/2/imported = false
tracks/2/enabled = true
tracks/2/keys = {
"times": PoolRealArray( 0.5 ),
"transitions": PoolRealArray( 1 ),
"update": 1,
"values": [ true ]
}
tracks/3/type = "value"
tracks/3/path = NodePath("ExplosionArea/CollisionShape2D:disabled")
tracks/3/interp = 1
tracks/3/loop_wrap = true
tracks/3/imported = false
tracks/3/enabled = true
tracks/3/keys = {
"times": PoolRealArray( 0, 0.6, 0.8 ),
"transitions": PoolRealArray( 1, 1, 1 ),
"update": 1,
"values": [ true, false, true ]
}
tracks/4/type = "value"
tracks/4/path = NodePath("Nut:modulate")
tracks/4/interp = 1
tracks/4/loop_wrap = true
tracks/4/imported = false
tracks/4/enabled = true
tracks/4/keys = {
"times": PoolRealArray( 0, 0.4, 0.5 ),
"transitions": PoolRealArray( 1, 1, 1 ),
"update": 0,
"values": [ Color( 1, 1, 1, 1 ), Color( 1, 1, 1, 1 ), Color( 1, 1, 1, 0 ) ]
}
tracks/5/type = "audio"
tracks/5/path = NodePath("AudioStreamPlayer2D")
tracks/5/interp = 1
tracks/5/loop_wrap = true
tracks/5/imported = false
tracks/5/enabled = true
tracks/5/keys = {
"clips": [ {
"end_offset": 1.12821,
"start_offset": 0.0,
"stream": ExtResource( 2 )
} ],
"times": PoolRealArray( 0.482446 )
}

[sub_resource type="Animation" id=6]
resource_name = "Nut"
loop = true
tracks/0/type = "value"
tracks/0/path = NodePath("Nut:rotation_degrees")
tracks/0/interp = 1
tracks/0/loop_wrap = true
tracks/0/imported = false
tracks/0/enabled = true
tracks/0/keys = {
"times": PoolRealArray( 0, 1 ),
"transitions": PoolRealArray( 1, 1 ),
"update": 0,
"values": [ 89.9996, 450.0 ]
}

[sub_resource type="Animation" id=7]
length = 0.001
tracks/0/type = "value"
tracks/0/path = NodePath("Nut:rotation_degrees")
tracks/0/interp = 1
tracks/0/loop_wrap = true
tracks/0/imported = false
tracks/0/enabled = true
tracks/0/keys = {
"times": PoolRealArray( 0 ),
"transitions": PoolRealArray( 1 ),
"update": 0,
"values": [ 89.9996 ]
}
tracks/1/type = "value"
tracks/1/path = NodePath("Nut:visible")
tracks/1/interp = 1
tracks/1/loop_wrap = true
tracks/1/imported = false
tracks/1/enabled = true
tracks/1/keys = {
"times": PoolRealArray( 0 ),
"transitions": PoolRealArray( 1 ),
"update": 0,
"values": [ true ]
}
tracks/2/type = "value"
tracks/2/path = NodePath("Nut:scale")
tracks/2/interp = 1
tracks/2/loop_wrap = true
tracks/2/imported = false
tracks/2/enabled = true
tracks/2/keys = {
"times": PoolRealArray( 0 ),
"transitions": PoolRealArray( 1 ),
"update": 0,
"values": [ Vector2( 6, 6 ) ]
}
tracks/3/type = "value"
tracks/3/path = NodePath("Particles2D:emitting")
tracks/3/interp = 1
tracks/3/loop_wrap = true
tracks/3/imported = false
tracks/3/enabled = true
tracks/3/keys = {
"times": PoolRealArray( 0 ),
"transitions": PoolRealArray( 1 ),
"update": 0,
"values": [ false ]
}
tracks/4/type = "value"
tracks/4/path = NodePath("ExplosionArea/CollisionShape2D:disabled")
tracks/4/interp = 1
tracks/4/loop_wrap = true
tracks/4/imported = false
tracks/4/enabled = true
tracks/4/keys = {
"times": PoolRealArray( 0 ),
"transitions": PoolRealArray( 1 ),
"update": 0,
"values": [ true ]
}
tracks/5/type = "value"
tracks/5/path = NodePath("Nut:modulate")
tracks/5/interp = 1
tracks/5/loop_wrap = true
tracks/5/imported = false
tracks/5/enabled = true
tracks/5/keys = {
"times": PoolRealArray( 0 ),
"transitions": PoolRealArray( 1 ),
"update": 0,
"values": [ Color( 1, 1, 1, 1 ) ]
}
tracks/6/type = "value"
tracks/6/path = NodePath("AudioStreamPlayer2D:playing")
tracks/6/interp = 1
tracks/6/loop_wrap = true
tracks/6/imported = false
tracks/6/enabled = true
tracks/6/keys = {
"times": PoolRealArray( 0 ),
"transitions": PoolRealArray( 1 ),
"update": 0,
"values": [ false ]
}

[sub_resource type="Curve" id=14]
min_value = -1024.0
max_value = 1024.0
_data = [ Vector2( 0, 1024 ), 0.0, 52703.4, 0, 0, Vector2( 0.12426, -907.636 ), -17109.0, -17109.0, 0, 0, Vector2( 1, -1024 ), 5876.5, 0.0, 0, 0 ]

[sub_resource type="CurveTexture" id=9]
curve = SubResource( 14 )

[sub_resource type="Curve" id=15]
_data = [ Vector2( 0, 0.5125 ), 0.0, 9.89034, 0, 0, Vector2( 0.260355, 1 ), -3.99455, -3.99455, 0, 0, Vector2( 0.526627, 0 ), -4.29886, 0.0, 0, 0 ]

[sub_resource type="CurveTexture" id=11]
curve = SubResource( 15 )

[sub_resource type="ParticlesMaterial" id=16]
lifetime_randomness = 0.32
flag_disable_z = true
direction = Vector3( 0, 0, 0 )
spread = 180.0
gravity = Vector3( 0, 0, 0 )
initial_velocity = 1.0
angular_velocity = 168.5
angular_velocity_random = 1.0
orbit_velocity = 0.0
orbit_velocity_random = 0.0
linear_accel_curve = SubResource( 9 )
scale = 8.0
scale_curve = SubResource( 11 )

[sub_resource type="CircleShape2D" id=17]
radius = 72.0

[node name="Nut" type="RigidBody2D" groups=["EnemyProjectile"]]
collision_layer = 32
collision_mask = 164
mass = 0.1
physics_material_override = SubResource( 8 )
gravity_scale = 8.0
applied_force = Vector2( 50, -50 )
script = SubResource( 4 )
__meta__ = {
"_edit_group_": true
}

[node name="Nut" type="Sprite" parent="."]
position = Vector2( -1.49012e-08, 0 )
rotation = 1.57079
scale = Vector2( 6, 6 )
texture = ExtResource( 1 )

[node name="Area2D" type="Area2D" parent="." groups=["EnemyProjectile"]]
collision_layer = 32
collision_mask = 16

[node name="CollisionShape2D" type="CollisionShape2D" parent="Area2D"]
shape = SubResource( 12 )

[node name="CollisionShape2D" type="CollisionShape2D" parent="."]
shape = SubResource( 5 )

[node name="AnimationPlayer" type="AnimationPlayer" parent="."]
autoplay = "Nut"
playback_speed = 1.3
anims/Explosion = SubResource( 13 )
anims/Nut = SubResource( 6 )
anims/RESET = SubResource( 7 )

[node name="Timer" type="Timer" parent="."]
wait_time = 2.5
one_shot = true
autostart = true

[node name="Particles2D" type="Particles2D" parent="."]
position = Vector2( 0, -0.75 )
emitting = false
amount = 64
lifetime = 2.5
one_shot = true
speed_scale = 3.0
explosiveness = 1.0
randomness = 1.0
local_coords = false
process_material = SubResource( 16 )

[node name="ExplosionArea" type="Area2D" parent="." groups=["Enemy"]]
collision_layer = 0
collision_mask = 16

[node name="CollisionShape2D" type="CollisionShape2D" parent="ExplosionArea"]
shape = SubResource( 17 )
disabled = true

[node name="VisibilityNotifier2D" type="VisibilityNotifier2D" parent="."]
position = Vector2( -3.8147e-06, -3.8147e-06 )
scale = Vector2( 11.2, 11.2 )

[node name="AudioStreamPlayer2D" type="AudioStreamPlayer2D" parent="."]
stream = ExtResource( 2 )
max_distance = 800.0
attenuation = 2.29739
bus = "SfxLower"

[connection signal="area_entered" from="Area2D" to="." method="_on_Area2D_area_entered"]
[connection signal="body_entered" from="Area2D" to="." method="_on_Area2D_body_entered"]
[connection signal="animation_finished" from="AnimationPlayer" to="." method="_on_AnimationPlayer_animation_finished"]
[connection signal="timeout" from="Timer" to="." method="_on_Timer_timeout"]
[connection signal="area_entered" from="ExplosionArea" to="." method="_on_ExplosionArea_area_entered"]
